{
  "config": {
    "run-mode": "docker",
    "run-exec": "docker compose run -T --rm php",
    "run-path": "vendor/bin/captainhook"
  },
  "pre-commit": {
    "enabled": true,
    "actions": [
      {
        "action": "composer qa:cs:check"
      },
      {
        "action": "composer qa:phpstan"
      },
      {
        "action": "composer qa:phpunit"
      }
    ]
  }
}
